%YAML 1.1
%TAG !u! tag:unity3d.com,2011:
--- !u!78 &1
TagManager:
  serializedVersion: 2
  tags:
  - Tierra
  - Colleccionable
  - Sorua
  - salt
  - Salt
  - Chiquito
  - Objeto
  - camera
  - bala
  - PlayerBullet
  - Enemigo
  - platform
  - coleccionable
  - vnormal
  layers:
  - Default
  - TransparentFX
  - Ignore Raycast
  - 
  - Water
  - UI
  - 
  - 
  - Suelo
  - capaPiso
  - Tierra
  - Jump
  - Jugador
  - 
  - 
  - 
  - 
  - 
  - 
  - 
  - 
  - 
  - 
  - 
  - 
  - 
  - 
  - 
  - 
  - 
  - 
  - 
  m_SortingLayers:
  - name: Default
    uniqueID: 0
    locked: 0
